duration,numfailedlogins,dsthostsrvrerrorrate,attack
507,0,0.16,0
18,0,0,0
409,0,0,0
7805,2,0,0
7,0,0,0
202,0,0,0
0,1,0.75,1
357,0,0,0
799,0,0.12,0
4,0,1,0
4468,0,0,0
0,0,0,0
1,0,0.5,0
2,0,0,0
7,0,0,0
7,0,0,0
0,0,0,0
20,0,0,0
2670,0,0,0
407,0,0.11,0
12278,0,0.2,0
0,1,0.92,1
6,0,0,0
7,0,0,0
639,0,0,0
0,0,0,0
11371,0,0,0
887,0,0.11,0
59,0,0,0
9,0,0,0
136,0,0,0
7,0,0,0
583,0,0,0
20252,0,0.35,0
11457,0,0,0
41,0,1,0
12096,0,0,0
43,0,0,0
12039,0,0.11,0
10629,0,0,0
8952,0,0,0
589,0,0.03,0
274,0,0.13,0
905,0,0.03,0
2736,0,0,0
14608,0,0,0
58,0,0,0
1049,2,0,0
11,0,0,0
4,0,0,0
13501,0,0.28,0
3,0,0,0
12124,0,0.08,0
244,0,0.07,0
12123,0,0,0
16800,1,0.33,0
3,0,0,0
40,0,0.33,0
0,0,0,0
9,0,0,0
10946,0,0,0
6,0,0,0
11338,0,0.12,0
571,0,0,0
0,1,0.95,1
0,0,0,0
70,0,0,0
25,0,0.1,0
14,0,0.25,0
3,0,0,0
17903,0,0.11,0
0,0,0.18,0
0,0,0,0
387,0,0.13,0
36,0,0,0
854,0,0,0
7787,0,0.01,0
12892,0,0,0
10774,0,0,0
9305,0,0,0
50,0,0,0
40,0,0,0
0,0,0,0
6,0,0,0
129,0,0,0
6,0,0,0
10,0,0,0
421,0,0,0
116,0,0.4,0
13339,0,0,0
0,0,0.04,0
13904,0,0,0
0,0,0.33,0
0,1,0.94,1
682,0,0,0
0,0,0,0
0,0,0,0
432,0,0.12,0
297,0,0,0
32,3,0.19,0
14,0,0.5,0
7,0,0.11,0
284,0,0.07,0
454,0,0.08,0
914,0,0,0
378,0,0,0
10706,0,0,0
21,0,0,0
4,0,0,0
9093,0,0.1,0
0,0,0.12,0
727,0,0,0
2,0,0,0
5,0,0.11,0
38,0,0,0
8,0,0,0
0,0,0.03,0
0,1,0.96,1
10835,0,0,0
0,0,0,0
12044,0,0.12,0
560,0,0.06,0
5,0,0.11,0
6,0,0,0
31,0,0.33,0
842,0,0.01,0
57,0,0,0
666,0,0,0
0,0,0.03,0
12160,0,0,0
618,0,0,0
11,0,0,0
46,0,0,0
4,0,0.33,0
12417,0,0,0
9,0,0,0
6,0,0,0
362,0,0,0
0,1,0.67,1
7,0,0,0
17,0,0,0
232,0,0.15,0
282,0,0,0
264,0,0.12,0
3,0,0.33,0
11460,0,0,0
13,0,0,0
30,0,0,0
6,0,0,0
10059,0,0,0
694,0,0,0
0,0,0,0
13535,0,0,0
6,0,0,0
33,0,0,0
294,0,0.06,0
0,0,0.5,0
11854,0,0,0
16754,0,0,0
0,1,0.95,1
11565,0,0.33,0
0,0,0,0
4,0,0,0
32,0,0,0
5,0,0,0
20,0,0,0
710,0,0.09,0
18,0,0,0
5632,0,0.08,0
13500,0,0.09,0
323,0,0.17,0
12,0,0,0
3916,1,0.14,0
4675,1,0,0
57,0,0,0
0,0,0,0
13417,0,0.05,0
0,0,0,0
454,0,0.15,0
9658,0,0,0
19,0,0,0
14517,0,0,0
168,0,0,0
4,0,0,0
251,0,0,0
0,0,0,0
10,0,0,0
20,0,0,0
191,0,0.25,0
3,0,0,0
0,1,0.93,1
279,0,0,0
103,0,0.17,0
0,1,0.35,0
3,0,0,0
1,0,0,0
17833,0,0,0
2,0,0,0
0,1,0.93,1
0,1,0.96,1
60,1,0,0
14680,0,0.03,0
222,0,0,0
15122,0,0,0
40,0,0,0
0,0,0,0
297,0,0.09,0
450,0,0,0
12013,0,0,0
20252,0,0.14,0
13967,0,0.12,0
347,0,0.09,0
0,0,0,0
0,0,0,0
9,0,0,0
13428,0,0.17,0
81,0,1,0
322,0,0.5,0
10,0,0,0
32,0,0,0
7,0,0,0
8,0,0,0
15127,0,0,0
36,0,0.07,0
556,0,0.14,0
42,0,0,0
7,0,0.5,0
10720,0,0.18,0
0,0,0.05,0
911,0,0.11,0
0,1,0.96,1
0,0,0.13,0
38,0,0,0
10028,0,0.1,0
30,0,0,0
29,0,0,0
3,0,0,0
688,0,0,0
74,0,0,0
356,0,0.01,0
14383,0,0.22,0
18,0,0,0
13,0,0,0
16,0,0,0
107,0,0.25,0
6,0,0,0
12828,0,0,0
741,0,0.13,0
14479,0,0,0
1,0,0,0
409,0,0.12,0
8,0,0,0
0,0,0,0
0,0,0.14,0
13812,0,0.13,0
6,0,0,0
19,0,0,0
0,1,0.92,1
11,0,0,0
0,0,0,0
308,1,0,0
15,0,0,0
14943,0,0,0
1,0,0,0
9,0,0,0
38,0,0,0
1,0,0.94,1
21,0,0,0
411,0,0,0
0,0,0,0
354,0,0,0
13,0,0,0
11781,0,0,0
13498,0,0.22,0
0,0,0.11,0
540,0,1,0
18632,0,0,0
14,0,0,0
15908,0,0.01,0
12913,0,0,0
0,0,0,0
658,1,0,0
14,0,0,0
2399,2,0,0
592,0,0,0
0,0,1,0
18848,0,0,0
15,0,0,0
0,0,0,0
18175,0,0.25,0
18,0,0,0
300,1,0.5,0
3,0,0,0
6,0,0,0
60,0,0,0
21,0,0.33,0
10626,0,0,0
15182,0,0.4,0
257,0,0,0
300,1,0,0
0,0,0,0
236,0,0.18,0
60,1,0,1
540,0,0.21,0
13208,0,0,0
5,0,0,0
86,3,0,0
16549,0,0,0
0,1,0.95,1
420,0,0,0
11385,0,0,0
22,0,0,0
9,0,0,0
1,0,0,0
4,0,0,0
76,0,0.12,0
0,0,0,0
14,0,0,0
30,0,0,0
11,0,0,0
26,0,0,0
228,0,0,0
13,0,0,0
14085,0,0.17,0
650,0,0,0
14,0,0.07,0
10745,0,0.24,0
0,1,0.5,1
47,0,0,0
14136,0,0.14,0
28,0,0,0
11271,0,0.01,0
0,0,0.04,0
49,0,0,0
15,0,1,0
10027,0,0.17,0
5,0,0,0
10409,0,0,0
3,0,0,0
300,0,0,0
8,0,0,0
444,0,0,0
1,0,0.67,0
11634,0,0.05,0
626,0,0,0
14,0,0,0
34,0,0,0
8,0,0,0
9473,0,0.2,0
391,0,0.11,0
389,0,0,0
11,0,0,0
12995,0,0,0
466,1,0,0
11256,0,0,0
16125,0,0,0
46,0,0,0
45,0,0,0
4746,3,0,0
281,0,0,0
408,0,0,0
67,0,0,0
50,0,0,0
16,0,0,0
5,0,0,0
2354,0,0,0
143,4,0.03,0
60,1,0.91,1
0,0,0,0
8,0,0,0
16,0,0,0
5,0,0,0
346,0,0,0
41,0,0,0
0,0,0.5,0
732,0,0.11,0
762,0,0,0
0,1,0.95,1
5,0,0,0
0,0,0,0
578,0,0,0
3,0,0,0
13,0,0,0
18,0,0.12,0
84,0,0.14,0
11155,0,0,0
42,0,0,0
11610,0,0,0
314,0,0.2,0
16574,0,0,0
0,0,0.5,0
482,0,0.12,0
35,0,0,0
11447,0,0.2,0
4,0,0,0
0,1,0.95,1
0,1,0.93,1
13368,0,0.18,0
0,0,0.29,0
11711,0,0.09,0
10871,0,0,0
3,0,0.5,0
711,0,0,0
0,0,0.03,0
8,0,0,0
39,0,0,0
388,0,0.1,0
6,0,0,0
9,0,0,0
7,0,0,0
4048,0,0,0
11773,0,0,0
0,0,0.17,0
456,0,0,0
825,0,0,0
0,0,1,0
0,0,0.09,0
40504,0,0.5,0
12381,0,0,0
302,0,0.09,0
289,0,0.19,0
24,0,0,0
11544,0,0,0
11226,0,0,0
12026,0,0,0
9,0,0,0
177,0,0.33,0
0,0,0.05,0
1,0,0,0
540,0,1,0
19,0,0,0
11667,0,0.04,0
14085,0,0.2,0
8310,0,0.12,0
9725,0,0,0
232,0,0.1,0
4,0,0,0
0,1,0.96,1
310,0,0,0
11602,0,0,0
424,0,0,0
388,0,0,0
4,0,0,0
277,0,0,0
0,0,0,0
14583,0,0,0
702,0,0.14,0
12275,0,0,0
13578,0,0,0
571,0,0.09,0
493,0,0.33,0
471,0,0.17,0
9,0,0,0
36,0,0,0
678,0,0.33,0
605,0,0,0
0,1,0.91,1
750,0,0,0
540,0,0,0
678,0,0.5,0
23,0,0,0
2,0,0,0
9,0,0.08,0
54,0,0.04,0
1261,0,0,0
5,0,0,0
469,0,0,0
0,1,0.95,1
16,0,0.5,0
65,0,0,0
23,0,0,0
277,0,0.08,0
48,0,0,0
258,0,0.04,0
13,0,0,0
0,1,0.96,1
0,0,0,0
10428,0,0.29,0
14204,0,0.02,0
15509,0,0.07,0
13919,0,0.16,0
3138,1,0.36,0
0,0,0.1,0
7,0,0,0
493,0,0,0
18,0,0,0
280,0,0,0
0,1,0.96,1
22,0,0,0
13193,0,0,0
0,0,0,0
5328,0,0,0
516,0,0,0
587,0,0.1,0
12,0,0,0
107,0,0.03,0
7,0,0,0
4,0,0,0
27,0,0,0
39,0,0,0
7782,1,0,0
1,0,0,0
13919,0,0.12,0
563,0,0.12,0
14362,0,0,0
6869,0,0,0
0,1,0.89,1
6,0,0,0
11926,0,0.5,0
300,1,0,0
642,0,0.1,0
576,0,0.05,0
45,0,0,0
85,0,0,0
7,0,0,0
367,0,0.13,0
10217,0,0,0
0,0,0.06,0
0,1,0.96,1
10,0,0,0
16,0,0,0
15,0,0,0
14301,0,0.01,0
13,4,0,0
0,0,1,0
6,0,0,0
5,0,0,0
17,0,0,0
605,0,0,0
15183,0,0.08,0
37,0,0,0
3,0,0,0
11233,0,0,0
0,1,0.92,1
296,0,0.12,0
14697,0,0,0
368,0,0,0
14857,0,0.23,0
252,0,0.03,0
9038,0,0,0
13,0,0,0
461,0,0.01,0
19,0,0,0
26,0,0,0
8,0,0.18,0
10397,0,0,0
99,0,0,0
263,0,0,0
38,0,0,0
62,0,0,0
893,0,0.07,0
10,0,0.07,0
69,0,1,0
2,0,0.5,0
49,0,0.33,0
5,0,0,0
729,0,0,0
223,0,0,0
567,0,0,0
11278,0,0,0
33,0,0.04,0
13,0,0,0
5,0,0,0
8954,0,0,0
0,0,0.08,0
28,0,0,0
19,2,0,0
36,0,0.2,0
10995,0,0.25,0
325,0,0,0
53,0,0,0
25,0,0.03,0
12,0,0.5,0
7,0,0,0
251,0,0.09,0
9,0,0,0
12430,0,0,0
31,0,0.2,0
26,0,0,0
12,0,0,0
0,0,1,0
0,1,0.93,1
7,0,0,0
0,0,0.12,0
33,0,0,0
307,0,0.06,0
11,0,0.07,0
57,0,0,0
300,1,0,0
9,0,0.09,0
67,0,0,0
10123,0,0.14,0
38,0,0,0
11654,0,0,0
26,0,0,0
5,0,0,0
4,0,0,0
5930,1,0.25,0
4,0,0,0
658,0,0,0
43,0,0,0
0,0,0.09,0
18,0,0,0
0,0,0,0
3,0,0.67,0
11879,0,0.22,0
20,0,0,0
0,0,0,0
14743,0,0.29,0
117,0,0,0
0,0,0.33,0
832,0,0.22,0
70,0,0.12,0
666,0,0,0
5,0,0,0
7761,3,0,0
1,0,0,0
899,0,0.17,0
22,0,0,0
10797,0,0.11,0
34,0,0,0
509,0,0.1,0
11310,0,0.15,0
8,0,0.08,0
540,0,0.17,0
0,0,0.04,0
209,0,0,0
37,0,0,0
344,0,0.12,0
27,0,0,0
0,0,0,0
0,1,0.95,1
9,0,0,0
52,0,0,0
6011,0,0,0
3,0,0,0
292,0,0.12,0
15412,0,0,0
14,0,0.92,0
0,0,0,0
15883,0,0.15,0
3075,1,0,0
11045,2,0.02,0
32,0,0,0
11861,0,0.17,0
37,0,0,0
33,0,0.03,0
632,0,0,0
10104,0,0,0
12539,0,0,0
27,0,0,0
11042,0,0,0
10985,0,0,0
0,0,0.2,0
66,0,0,0
150,0,0.12,0
49,0,0,0
13,0,0,0
49,0,0.06,0
10551,0,0,0
11206,0,0.07,0
53,0,0,0
11204,0,0.2,0
10438,0,0.12,0
202,2,0,0
440,0,0,0
13841,0,0,0
12,0,0,0
0,0,0.03,0
21,0,0,0
826,0,0.01,0
0,0,0,0
0,1,0.86,1
15163,0,0,0
17,0,0,0
6,0,0,0
35,0,0,0
0,0,0.05,0
470,0,0,0
49,0,0,0
10,0,1,0
16,0,0,0
9,0,0,0
23,0,0,0
580,0,0,0
0,0,0.03,0
24,0,0,0
706,0,0,0
0,0,0,0
0,0,0.05,0
11,0,0.25,0
29,0,0,0
0,1,0.94,1
18,0,0,0
71,0,0,0
3,0,1,0
25,0,0,0
0,0,0,0
13620,0,0,0
0,1,0.92,1
13919,0,0,0
300,1,0,0
40,0,0.5,0
15,0,0.08,0
7,0,0,0
14494,0,0,0
10110,0,0.08,0
2514,0,0,0
0,0,0,0
0,0,0.33,0
3,0,0,0
0,0,0.04,0
17,0,0.2,0
13393,0,0,0
11569,0,0,0
311,0,0.08,0
442,0,0.03,0
0,0,0,0
7,0,0,0
15,0,0,0
825,0,0,0
186,0,0.5,0
0,1,0.95,1
11,0,0,0
128,0,0,0
39,0,0,0
7,0,0,0
0,0,1,0
12359,0,0,0
404,0,0.12,0
1,0,0,0
35,0,0,0
320,0,0,0
11854,0,0.4,0
16187,0,0,0
10354,0,0.01,0
7,0,0,0
477,0,0.09,0
8,0,0,0
9,0,0,0
7,0,0,0
5506,0,0,0
31,0,0,0
40,0,0,0
184,0,0.12,0
0,0,0.06,0
52,0,0.12,0
22,0,0,0
1122,0,0,0
10,0,0,0
364,0,0.01,0
13271,0,0,0
0,1,0.9,1
17,0,0,0
0,0,0.1,0
632,0,0.01,0
11594,0,0,0
319,1,0,0
0,0,0.5,0
164,0,0,0
18,3,0.27,0
771,0,0,0
70,0,0,0
13124,0,0.08,0
28,0,0,0
0,0,1,0
9,0,0,0
11,0,0,0
6,0,0,0
0,0,0,0
8642,0,0,0
11921,0,0,0
18,0,0,0
597,0,0.12,0
5,0,0,0
11343,0,0,0
6,0,0,0
25,0,0,0
5,0,0,0
12622,0,0,0
1,0,0,0
8,0,0,0
55,0,0,0
281,0,0.1,0
471,0,0.13,0
21,0,0,0
19,0,0,0
484,0,0,0
6,0,0,0
29,0,0.08,0
11014,0,0,0
22,0,0,0
226,0,0.04,0
29,0,0,0
34,1,0,0
17,0,0.33,0
806,0,0,0
15,0,0,0
0,0,0.03,0
0,0,0,0
11963,0,0,0
19,0,0.5,0
23,5,0,1
1174,0,0.14,0
11,0,0,0
0,1,0.95,1
4,0,0,0
12005,0,0.09,0
10489,0,0.03,0
373,0,0,0
37,0,0,0
6,0,0,0
15377,0,0.08,0
201,0,0,0
85,0,0,0
12940,0,0,0
56,0,0.03,0
0,1,0.94,1
13,0,0,0
0,1,0.95,1
0,0,0.06,0
9390,0,0.1,0
13949,0,0,0
3,0,1,0
2,0,0,0
20252,0,0.32,0
13087,0,0,0
3,0,0,0
0,0,0,0
150,0,0,0
9,0,0,0
2552,0,0,0
375,0,0.11,0
0,0,0,0
123,0,0,0
0,1,0.8,1
0,1,0.83,1
285,0,0,0
14538,1,0.13,0
12,0,0,0
39,0,0,0
12,0,0,0
10007,0,0,0
0,1,0.93,1
13014,0,0,0
5208,0,0.04,0
39,0,0,0
37,0,0,0
11,0,0,0
18053,0,0,0
7,0,0,0
584,0,0.08,0
84,0,0,0
18677,1,0.07,0
12268,0,0.25,0
3,0,0,0
623,0,0,0
10809,0,0.15,0
8989,2,0,0
120,0,0,0
15211,0,0,0
15844,0,0,0
309,0,0.11,0
560,0,0.12,0
11142,0,0,0
674,2,0.12,0
9769,0,0,0
37,0,0,0
226,0,0.01,0
3579,0,0.12,0
0,0,0.5,0
0,1,0.94,1
13039,0,0.04,0
30,0,0.11,0
11,0,0,0
32,0,0.5,0
24,0,0,0
988,0,0,0
0,1,0.95,1
5,0,0.08,0
548,0,0,0
8625,0,0.18,0
0,0,0,0
22,0,0,0
759,0,0.04,0
10333,0,0,0
0,0,0,0
13120,0,0.08,0
34,0,0,0
26,2,0,0
310,0,0,0
13,0,0,0
12353,0,0,0
0,1,0.92,1
48,0,0,0
30,0,0,0
521,0,0,0
13,0,0,0
60,0,0,0
10,0,0,0
0,1,0.88,1
245,0,0.11,0
19,0,0,0
1,0,0,0
0,0,0,0
34,0,0,0
0,1,0.93,1
208,0,0.11,0
0,0,0.13,0
0,0,0,0
0,0,0.04,0
395,0,0.11,0
40,0,0,0
28,0,0,0
11293,0,0.15,0
4,0,0,0
0,0,0,0
593,0,0.04,0
274,0,0,0
1,0,0,0
890,0,0.5,0
0,1,0.95,1
0,0,0,0
7,0,0,0
400,0,0.1,0
13189,0,0.17,0
171,0,0,0
12988,0,0,0
172,1,0.05,0
12,0,0,0
31,0,0,0
7,0,0,0
4,0,0,0
412,0,0,0
0,0,0.04,0
39,1,0,0
13383,0,0,0
10,0,1,0
0,0,0.4,0
1,0,0,0
15263,0,0,0
0,1,0.94,1
11441,0,0.22,0
0,0,0,0
11,0,0,0
10501,0,0.12,0
802,0,0,0
29,0,0,0
16,0,0,0
0,0,0,0
187,0,0,0
0,1,0.94,1
13124,0,0.29,0
135,0,0.04,0
808,0,0.04,0
9992,0,0,0
11103,0,0,0
0,0,0,0
0,1,0.94,1
3,0,0,0
266,0,0.08,0
18022,0,0.05,0
0,1,0.94,1
6,0,0,0
0,1,0.94,1
703,0,0,0
21,0,0,0
397,0,0.11,0
11680,0,0,0
679,0,0.22,0
